…
A first look at our data.

``` r
df
```

    ## # A tibble: 32,593 x 20
    ##    code_module code_presentation id_student date_registration
    ##          <chr>             <chr>      <chr>             <dbl>
    ##  1         AAA             2013J      11391              -159
    ##  2         AAA             2013J      28400               -53
    ##  3         AAA             2013J      30268               -92
    ##  4         AAA             2013J      31604               -52
    ##  5         AAA             2013J      32885              -176
    ##  6         AAA             2013J      38053              -110
    ##  7         AAA             2013J      45462               -67
    ##  8         AAA             2013J      45642               -29
    ##  9         AAA             2013J      52130               -33
    ## 10         AAA             2013J      53025              -179
    ## # ... with 32,583 more rows, and 16 more variables:
    ## #   date_unregistration <dbl>, gender <chr>, region <chr>,
    ## #   highest_education <fctr>, imd_band <chr>, age_band <chr>,
    ## #   num_of_prev_attempts <int>, studied_credits <int>, disability <chr>,
    ## #   final_result <chr>, total_activity <dbl>, days_active <dbl>,
    ## #   last_active_date <dbl>, distinct_content_items_accessed <dbl>,
    ## #   final_assessment_score <dbl>, final_exam_score <dbl>
…
### Practice time with `select()`!

Challenge: using our full dataframe, select just the `id_student` column.

``` r
df %>% 
  select(id_student)
```

    ## # A tibble: 32,593 x 1
    ##    id_student
    ##         <chr>
    ##  1      11391
    ##  2      28400
    ##  3      30268
    ##  4      31604
    ##  5      32885
    ##  6      38053
    ##  7      45462
    ##  8      45642
    ##  9      52130
    ## 10      53025
    ## # ... with 32,583 more rows
…
class(vriable2)
```

    ## [1] "numeric"

Awesome. Now let's grab our two variables of interest, plus the `id_student` column, and save it in a new dataframe. (This step isn't strictly necessary, but it will make it easier for us to keep an eye on the columns we care about.)

``` r
df_selected <- df %>% 
  select(id_student, imd_band, final_result)

df_selected
```

    ## # A tibble: 32,593 x 3
    ##    id_student imd_band final_result
    ##         <chr>    <chr>        <chr>
    ##  1      11391  90-100%         Pass
    ##  2      28400   20-30%         Pass
    ##  3      30268   30-40%    Withdrawn
    ##  4      31604   50-60%         Pass
    ##  5      32885   50-60%         Pass
    ##  6      38053   80-90%         Pass
    ##  7      45462   30-40%         Pass
    ##  8      45642  90-100%         Pass
    ##  9      52130   70-80%         Pass
    ## 10      53025     <NA>         Pass
    ## # ... with 32,583 more rows
…
### Practice time with `mutate()`!

Challenge: using `mutate()` and the `total_activity` and `days_active` columns, create a new column in our real dataset called `average_events_per_active_day`. (`total_activity` tells you the total number of events that were logged for that student.)

``` r
df %>% 
  mutate(
    average_events_per_active_day = total_activity/days_active
  ) %>% 
  select(id_student, total_activity, days_active, average_events_per_active_day)
```

    ## # A tibble: 32,593 x 4
    ##    id_student total_activity days_active average_events_per_active_day
    ##         <chr>          <dbl>       <dbl>                         <dbl>
    ##  1      11391            934          40                      23.35000
    ##  2      28400           1435          80                      17.93750
    ##  3      30268            281          12                      23.41667
    ##  4      31604           2158         123                      17.54472
    ##  5      32885           1034          70                      14.77143
    ##  6      38053           2445         143                      17.09790
    ##  7      45462           1492          90                      16.57778
    ##  8      45642           1428         105                      13.60000
    ##  9      52130           1894         122                      15.52459
    ## 10      53025           3158         142                      22.23944
    ## # ... with 32,583 more rows
…
# Let's take a look!
df_mutated
```

    ## # A tibble: 32,593 x 4
    ##    id_student imd_band final_result completed_course
    ##         <chr>    <chr>        <chr>            <lgl>
    ##  1      11391  90-100%         Pass             TRUE
    ##  2      28400   20-30%         Pass             TRUE
    ##  3      30268   30-40%    Withdrawn            FALSE
    ##  4      31604   50-60%         Pass             TRUE
    ##  5      32885   50-60%         Pass             TRUE
    ##  6      38053   80-90%         Pass             TRUE
    ##  7      45462   30-40%         Pass             TRUE
    ##  8      45642  90-100%         Pass             TRUE
    ##  9      52130   70-80%         Pass             TRUE
    ## 10      53025     <NA>         Pass             TRUE
    ## # ... with 32,583 more rows
…
    ##    course student final_grade exam_grade
    ## 1 Physics   Alice          85         87
    ## 2 Physics     Bob          74         71
    ## 3 English   Alice          81         80
    ## 4    Math     Bob          87         83

### Practice time with `filter()`!

Challenge: keep only the subset of rows in our dataframe where the code module was `AAA` and the student had more than 0 previous attempts.

``` r
df
```

    ## # A tibble: 32,593 x 20
    ##    code_module code_presentation id_student date_registration
    ##          <chr>             <chr>      <chr>             <dbl>
    ##  1         AAA             2013J      11391              -159
    ##  2         AAA             2013J      28400               -53
    ##  3         AAA             2013J      30268               -92
    ##  4         AAA             2013J      31604               -52
    ##  5         AAA             2013J      32885              -176
    ##  6         AAA             2013J      38053              -110
    ##  7         AAA             2013J      45462               -67
    ##  8         AAA             2013J      45642               -29
    ##  9         AAA             2013J      52130               -33
    ## 10         AAA             2013J      53025              -179
    ## # ... with 32,583 more rows, and 16 more variables:
    ## #   date_unregistration <dbl>, gender <chr>, region <chr>,
    ## #   highest_education <fctr>, imd_band <chr>, age_band <chr>,
    ## #   num_of_prev_attempts <int>, studied_credits <int>, disability <chr>,
    ## #   final_result <chr>, total_activity <dbl>, days_active <dbl>,
    ## #   last_active_date <dbl>, distinct_content_items_accessed <dbl>,
    ## #   final_assessment_score <dbl>, final_exam_score <dbl>

``` r
df %>% 
  filter(
    num_of_prev_attempts > 0 & code_module == "AAA"
  )
```

    ## # A tibble: 41 x 20
    ##    code_module code_presentation id_student date_registration
    ##          <chr>             <chr>      <chr>             <dbl>
    ##  1         AAA             2014J      65002              -144
    ##  2         AAA             2014J      94961              -150
    ##  3         AAA             2014J     121349               -28
    ##  4         AAA             2014J     129955              -143
    ##  5         AAA             2014J     135335               -82
    ##  6         AAA             2014J     135400               -51
    ##  7         AAA             2014J     141377              -127
    ##  8         AAA             2014J     147756               -41
    ##  9         AAA             2014J     148993              -154
    ## 10         AAA             2014J     155984              -156
    ## # ... with 31 more rows, and 16 more variables: date_unregistration <dbl>,
    ## #   gender <chr>, region <chr>, highest_education <fctr>, imd_band <chr>,
    ## #   age_band <chr>, num_of_prev_attempts <int>, studied_credits <int>,
    ## #   disability <chr>, final_result <chr>, total_activity <dbl>,
    ## #   days_active <dbl>, last_active_date <dbl>,
    ## #   distinct_content_items_accessed <dbl>, final_assessment_score <dbl>,
    ## #   final_exam_score <dbl>

To get at the missing values in our two columns of interest, you may be tempted to write conditions like `imd_band == NA` or `completed_course == NA`. However, in R, the best practice for checking whether a value is missing is to use the function `is.na()`.

In the code snippet below, I keep only the subset of rows where neither `imd_band` or `completed_course` is missing.

``` r
# Let's save the result in a new dataframe called `df_filtered`.
df_filtered <- df_mutated %>% 
  filter(!is.na(imd_band),
         !is.na(completed_course))

df_filtered
```

    ## # A tibble: 31,482 x 4
    ##    id_student imd_band final_result completed_course
    ##         <chr>    <chr>        <chr>            <lgl>
    ##  1      11391  90-100%         Pass             TRUE
    ##  2      28400   20-30%         Pass             TRUE
    ##  3      30268   30-40%    Withdrawn            FALSE
    ##  4      31604   50-60%         Pass             TRUE
    ##  5      32885   50-60%         Pass             TRUE
    ##  6      38053   80-90%         Pass             TRUE
    ##  7      45462   30-40%         Pass             TRUE
    ##  8      45642  90-100%         Pass             TRUE
    ##  9      52130   70-80%         Pass             TRUE
    ## 10      57506   70-80%         Pass             TRUE
    ## # ... with 31,472 more rows
…
    ##   mean_grade
    ## 1   84.83333

### Practice time with `group_by()` + `summarise()`!

Using our full open dataset, compute the mean number of days (`days_active`) students were active in each course (`code_module`).

``` r
df
```

    ## # A tibble: 32,593 x 20
    ##    code_module code_presentation id_student date_registration
    ##          <chr>             <chr>      <chr>             <dbl>
    ##  1         AAA             2013J      11391              -159
    ##  2         AAA             2013J      28400               -53
    ##  3         AAA             2013J      30268               -92
    ##  4         AAA             2013J      31604               -52
    ##  5         AAA             2013J      32885              -176
    ##  6         AAA             2013J      38053              -110
    ##  7         AAA             2013J      45462               -67
    ##  8         AAA             2013J      45642               -29
    ##  9         AAA             2013J      52130               -33
    ## 10         AAA             2013J      53025              -179
    ## # ... with 32,583 more rows, and 16 more variables:
    ## #   date_unregistration <dbl>, gender <chr>, region <chr>,
    ## #   highest_education <fctr>, imd_band <chr>, age_band <chr>,
    ## #   num_of_prev_attempts <int>, studied_credits <int>, disability <chr>,
    ## #   final_result <chr>, total_activity <dbl>, days_active <dbl>,
    ## #   last_active_date <dbl>, distinct_content_items_accessed <dbl>,
    ## #   final_assessment_score <dbl>, final_exam_score <dbl>
…
